Begin task: AUT-0:Preparing launch delegate...
progress: AUT-0:Performing pre-launch check...
progress: AUT-0:Initialize target platform...
progress: AUT-0:Looking up AUT
progress: AUT-0:Resolving AUT
progress: AUT-0:Resolving Target Contents...
progress: AUT-0:Reading plug-ins
progress: AUT-0:
progress: AUT-0:Performing final launch validation...
progress: AUT-0:Initializing source locator...
progress: AUT-0:Launching delegate...
progress: AUT-0:Constructing command line...
progress: AUT-0:Starting virtual machine...
progress: AUT-0:
